{"installed":
    {"client_id":"770510245292-ebge46r7pknsoot703dn11jgtkvtuqre.apps.googleusercontent.com",
      "project_id":"flordelis-1543001037826",
      "auth_uri":"https://accounts.google.com/o/oauth2/auth",
      "token_uri":"https://www.googleapis.com/oauth2/v3/token",
      "auth_provider_x509_cert_url":"https://www.googleapis.com/oauth2/v1/certs",
      "client_secret":"tYWyJsiJr1iBi6B9LsWd-Rre",
      "redirect_uris":["urn:ietf:wg:oauth:2.0:oob","http://localhost"]}}
